Spring 2023 IE 451 Homework-1
…
EXERCISE 1.1 (5.2.4):

Q: Had an arrival delay of two or more hours.

df %>% 
  filter(arr_delay >= 120) %>%
  select(tailnum, arr_delay)  

# A tibble: 10,200 × 2
   tailnum arr_delay
   <chr>       <dbl>
 1 N531MQ        137
 2 N942MQ        851
 3 N534UA        123
 4 N76502        145
 5 N17984        127
 6 N231JB        125
 7 N21197        136
 8 N826AS        123
 9 N16911        123
10 N504MQ        138
# … with 10,190 more rows

EXERCISE 1.2 (5.2.4):

Q: Flew to Houston (IAH or HOU).

class(df$dest)

[1] "character"

df %>% 
  filter(dest == "IAH" | dest == "HOU") %>% 
  select(tailnum, dest)

# A tibble: 9,313 × 2
   tailnum dest 
   <chr>   <chr>
 1 N14228  IAH  
 2 N24211  IAH  
 3 N459UA  IAH  
 4 N488UA  IAH  
 5 N37408  IAH  
 6 N12216  IAH  
 7 N76508  IAH  
 8 N667UA  IAH  
 9 N76502  IAH  
10 N39418  IAH  
# … with 9,303 more rows

EXERCISE 1.3 (5.2.4):

Q: Were operated by United, American, or Delta.

df %>% 
  filter(carrier %in% c("UA", "AA", "DL")) %>% 
  select(tailnum, carrier)

# A tibble: 139,504 × 2
   tailnum carrier
   <chr>   <chr>  
 1 N14228  UA     
 2 N24211  UA     
 3 N619AA  AA     
 4 N668DN  DL     
 5 N39463  UA     
 6 N3ALAA  AA     
 7 N29129  UA     
 8 N53441  UA     
 9 N3DUAA  AA     
10 N76515  UA     
# … with 139,494 more rows
…
filter(df, month %in% 7:9)

# A tibble: 86,326 × 19
    year month   day dep_time sched_de…¹ dep_d…² arr_t…³ sched…⁴ arr_d…⁵ carrier
   <int> <int> <int>    <int>      <int>   <dbl>   <int>   <int>   <dbl> <chr>  
 1  2013     7     1        1       2029     212     236    2359     157 B6     
 2  2013     7     1        2       2359       3     344     344       0 B6     
 3  2013     7     1       29       2245     104     151       1     110 B6     
 4  2013     7     1       43       2130     193     322      14     188 B6     
 5  2013     7     1       44       2150     174     300     100     120 AA     
 6  2013     7     1       46       2051     235     304    2358     186 B6     
 7  2013     7     1       48       2001     287     308    2305     243 VX     
 8  2013     7     1       58       2155     183     335      43     172 B6     
 9  2013     7     1      100       2146     194     327      30     177 B6     
10  2013     7     1      100       2245     135     337     135     122 B6     
# … with 86,316 more rows, 9 more variables: flight <int>, tailnum <chr>,
#   origin <chr>, dest <chr>, air_time <dbl>, distance <dbl>, hour <dbl>,
#   minute <dbl>, time_hour <dttm>, and abbreviated variable names
#   ¹​sched_dep_time, ²​dep_delay, ³​arr_time, ⁴​sched_arr_time, ⁵​arr_delay

EXERCISE 1.5 (5.2.4):

Q: Arrived more than two hours late, but didn’t leave late.

filter(df, arr_delay > 120, dep_delay <= 0)

# A tibble: 29 × 19
    year month   day dep_time sched_de…¹ dep_d…² arr_t…³ sched…⁴ arr_d…⁵ carrier
   <int> <int> <int>    <int>      <int>   <dbl>   <int>   <int>   <dbl> <chr>  
 1  2013     1    27     1419       1420      -1    1754    1550     124 MQ     
 2  2013    10     7     1350       1350       0    1736    1526     130 EV     
 3  2013    10     7     1357       1359      -2    1858    1654     124 AA     
 4  2013    10    16      657        700      -3    1258    1056     122 B6     
 5  2013    11     1      658        700      -2    1329    1015     194 VX     
 6  2013     3    18     1844       1847      -3      39    2219     140 UA     
 7  2013     4    17     1635       1640      -5    2049    1845     124 MQ     
 8  2013     4    18      558        600      -2    1149     850     179 AA     
 9  2013     4    18      655        700      -5    1213     950     143 AA     
10  2013     5    22     1827       1830      -3    2217    2010     127 MQ     
# … with 19 more rows, 9 more variables: flight <int>, tailnum <chr>,
#   origin <chr>, dest <chr>, air_time <dbl>, distance <dbl>, hour <dbl>,
#   minute <dbl>, time_hour <dttm>, and abbreviated variable names
#   ¹​sched_dep_time, ²​dep_delay, ³​arr_time, ⁴​sched_arr_time, ⁵​arr_delay

EXERCISE 1.6 (5.2.4):

Q: Were delayed by at least an hour, but made up over 30 minutes in flight.

df %>% 
  filter(dep_delay >= 60, dep_delay - arr_delay > 30) %>% 
  select(tailnum, dep_delay, arr_delay) %>% 
  mutate(diff = dep_delay - arr_delay)

# A tibble: 1,844 × 4
   tailnum dep_delay arr_delay  diff
   <chr>       <dbl>     <dbl> <dbl>
 1 N5DNAA        285       246    39
 2 N594JB        116        73    43
 3 N835UA        162       128    34
 4 N631AA         99        66    33
 5 N332AA         65        28    37
 6 N402UA        102        67    35
 7 N636JB         65         1    64
 8 N903XJ         60        24    36
 9 N931XJ        177       141    36
10 N5EUAA        137       105    32
# … with 1,834 more rows

EXERCISE 1.7 (5.2.4):

Q: Departed between midnight and 6am (inclusive).

filter(df, dep_time <= 600 | dep_time == 2400)

# A tibble: 9,373 × 19
    year month   day dep_time sched_de…¹ dep_d…² arr_t…³ sched…⁴ arr_d…⁵ carrier
   <int> <int> <int>    <int>      <int>   <dbl>   <int>   <int>   <dbl> <chr>  
 1  2013     1     1      517        515       2     830     819      11 UA     
 2  2013     1     1      533        529       4     850     830      20 UA     
 3  2013     1     1      542        540       2     923     850      33 AA     
 4  2013     1     1      544        545      -1    1004    1022     -18 B6     
 5  2013     1     1      554        600      -6     812     837     -25 DL     
 6  2013     1     1      554        558      -4     740     728      12 UA     
 7  2013     1     1      555        600      -5     913     854      19 B6     
 8  2013     1     1      557        600      -3     709     723     -14 EV     
 9  2013     1     1      557        600      -3     838     846      -8 B6     
10  2013     1     1      558        600      -2     753     745       8 AA     
# … with 9,363 more rows, 9 more variables: flight <int>, tailnum <chr>,
#   origin <chr>, dest <chr>, air_time <dbl>, distance <dbl>, hour <dbl>,
#   minute <dbl>, time_hour <dttm>, and abbreviated variable names
#   ¹​sched_dep_time, ²​dep_delay, ³​arr_time, ⁴​sched_arr_time, ⁵​arr_delay

EXERCISE 2 (5.2.4):

Q: Another useful dplyr filtering helper is between(). What does it do? Can you use it to simplify the code needed to answer the previous challenges?

Answer: It can be used to simplify the code since it’s useful tool to determine intervals. In the code below, you can find the flights that their number between 0 and 100.

filter(df, between(flight, 0, 100)) %>% 
select(tailnum,flight)

# A tibble: 17,753 × 2
   tailnum flight
   <chr>    <int>
 1 N593JB      79
 2 N793JB      49
 3 N657JB      71
 4 N535UW      27
 5 N594AS      11
 6 N635VA      11
 7 N304JB      20
 8 N552JB      44
 9 N338AA      33
10 N336AA      59
# … with 17,743 more rows
…
